GLM 2026 - Diagnostics
…
5. Independent Errors
Research Design

6. Normality of the Errors
q-q plot or distribution

Code

a_data <- read.csv(here("anxiety.csv"))
library(broom)
model.1 <- lm(Anxiety ~ Support, a_data)
aug_1<- augment(model.1)
aug_1

# A tibble: 118 × 8
   Anxiety Support .fitted  .resid    .hat .sigma    .cooksd .std.resid
     <dbl>   <dbl>   <dbl>   <dbl>   <dbl>  <dbl>      <dbl>      <dbl>
 1   10.2     6.16    8.68  1.51   0.0137    2.10 0.00366        0.725 
 2    5.59    8.91    7.54 -1.95   0.00850   2.09 0.00376       -0.937 
 3    6.58   10.5     6.86 -0.278  0.0111    2.10 0.000100      -0.134 
 4    8.95   11.5     6.48  2.47   0.0144    2.09 0.0103         1.19  
 5    7.60    5.55    8.93 -1.33   0.0165    2.10 0.00346       -0.642 
 6    8.16    7.51    8.12  0.0368 0.00966   2.10 0.00000153     0.0177
 7    9.08    8.56    7.69  1.39   0.00850   2.10 0.00192        0.669 
 8    3.41    4.1     9.53 -6.12   0.0255    2.02 0.115         -2.96  
 9    8.66    5.39    9.00 -0.340  0.0173    2.10 0.000237      -0.164 
10    4.85   13.9     5.47 -0.620  0.0299    2.10 0.00139       -0.301 
# ℹ 108 more rows
…
