GLM 2026 - review
…
Age | Predicted |        95% CI
-------------------------------
 20 |     87.03 | 74.95,  99.12
 30 |     81.90 | 73.56,  90.24
 40 |     76.77 | 70.51,  83.03
 50 |     71.64 | 64.22,  79.05
 60 |     66.50 | 55.69,  77.32
 80 |     56.24 | 36.76,  75.72

Not all rows are shown in the output. Use `print(..., n = Inf)` to show
  all rows.

tibble(output.cont.inter)

# A tibble: 39 × 6
       x predicted std.error conf.low conf.high group
   <int>     <dbl>     <dbl>    <dbl>     <dbl> <fct>
 1    20      93.8      5.36     83.1     105.  1.03 
 2    20      90.4      4.07     82.3      98.6 2.68 
 3    20      87.0      6.04     74.9      99.1 4.32 
 4    25      91.3      4.66     81.9     101.  1.03 
 5    25      87.9      3.48     80.9      94.8 2.68 
 6    25      84.5      5.05     74.4      94.6 4.32 
 7    30      88.7      4.05     80.6      96.8 1.03 
 8    30      85.3      2.94     79.4      91.2 2.68 
 9    30      81.9      4.17     73.6      90.2 4.32 
10    35      86.1      3.54     79.0      93.2 1.03 
# ℹ 29 more rows
…
Age | Predicted |        95% CI
-------------------------------
 20 |     83.85 | 74.20,  93.50
 30 |     78.71 | 71.51,  85.92
 40 |     73.58 | 67.97,  79.19
 50 |     68.45 | 62.82,  74.08
 60 |     63.32 | 56.07,  70.56
 80 |     53.05 | 40.55,  65.55

Not all rows are shown in the output. Use `print(..., n = Inf)` to show
  all rows.

tibble(output.mixed.inter)

# A tibble: 26 × 6
       x predicted std.error conf.low conf.high group 
   <int>     <dbl>     <dbl>    <dbl>     <dbl> <fct> 
 1    20      94.8      5.67     83.5     106.  male  
 2    20      83.8      4.82     74.2      93.5 female
 3    25      93.1      4.79     83.5     103.  male  
 4    25      81.3      4.18     72.9      89.6 female
 5    30      91.4      4.00     83.4      99.4 male  
 6    30      78.7      3.60     71.5      85.9 female
 7    35      89.7      3.39     82.9      96.5 male  
 8    35      76.1      3.13     69.9      82.4 female
 9    40      88.0      3.05     81.9      94.1 male  
10    40      73.6      2.80     68.0      79.2 female
# ℹ 16 more rows
…
